﻿id,first_name,middle_name,last_name,cellphone,phone,street,suburb,city,created_at,updated_at
1,ABRAHAM ENRIQUE,GONZALEZ,BADILLA,6311398081,.,.,.,.,2018-08-11,2018-08-11
2,ADLAY IVETTE,RUIZ,ALOR,6311249501,.,.,.,.,2018-08-11,2018-08-11
3,ADRIANA CLEMENTINA,SILLAS,MANCINAS,6311441889,.,.,.,.,2018-08-11,2018-08-11
4,ALEJANDRA,RAMIREZ,ZAZUETA,15202160940,.,.,.,.,2018-08-11,2018-08-11
5,ALEJANDRA ,RODRIGUEZ,CAMACHO,6311263040,.,.,.,.,2018-08-11,2018-08-11
6,ALEJANDRO ,ARELLANO,CARPIO,6311130309,.,.,.,.,2018-08-11,2018-08-11
7,ALFREDO ,MALDONADO,PACHECO,6311241313,.,.,.,.,2018-08-11,2018-08-11
8,ALICIA ,GONZALEZ,COLINA,6319998500,.,.,.,.,2018-08-11,2018-08-11
9,ALMA YADIRA,ROSALDI,SIAS,6311793928,.,.,.,.,2018-08-11,2018-08-11
10,AMELIA ,LEON,AGUILAR,6311372788,.,.,.,.,2018-08-11,2018-08-11
11,AMERICA ,LERMA,URIBE,6311357672,.,.,.,.,2018-08-11,2018-08-11
12,ARIADNA DANAE,DANAE,OROZCO,6311499003,.,.,.,.,2018-08-11,2018-08-11
13,BERTHA IRENE,IRENE,CORELLA,6311624565,.,.,.,.,2018-08-11,2018-08-11
14,BLANCA ESTHELA,PEREZ,ABREHU,15205517603,.,.,.,.,2018-08-11,2018-08-11
15,BRUNO LUGO,LUGO,LOPEZ,6313045028,.,.,.,.,2018-08-11,2018-08-11
16,CARLOS RENE,RENE,RODRIGUEZ,6311290983,.,.,.,.,2018-08-11,2018-08-11
17,CESAR GERARDO,HERRERA,MENDOZA,6311309087,.,.,.,.,2018-08-11,2018-08-11
18,CLEMENTE IVAN,BARRERAS,ROBLES,6311056502,.,.,.,.,2018-08-11,2018-08-11
19,CLEMENTE ,RODRIGUEZ,CURIEL,6311323329,.,.,.,.,2018-08-11,2018-08-11
20,DANIEL ,NAVARRO,CASILLAS,6319445803,.,.,.,.,2018-08-11,2018-08-11
21,DAVID RICARDO,RICARDO,CHAVOYA,6319441839,.,.,.,.,2018-08-11,2018-08-11
22,EDUARDO PATRICIO,PATRICIO,QUINTERO,6027919695,.,.,.,.,2018-08-11,2018-08-11
23,ELANY GISELA,RUIZ,SIARUQUI,6311804514,.,.,.,.,2018-08-11,2018-08-11
24,ELIZABETH ,ZEDILLO,HERNANDEZ,6319449799,.,.,.,.,2018-08-11,2018-08-11
25,ENRIQUE DUARTE,DUARTE,RIESTRA,6311157561,.,.,.,.,2018-08-11,2018-08-11
26,ERICA ANGELINA,SOTO,MENDIVI,6311142755,.,.,.,.,2018-08-11,2018-08-11
27,ERICA GUADALUPE,AGÜERO,PASILLAS,6311444852,.,.,.,.,2018-08-11,2018-08-11
28,ERICA ,SOTO,MENDIVIL,6311142755,.,.,.,.,2018-08-11,2018-08-11
29,ERNESTO ,ALMEIDA,LIRA,6311024154,.,.,.,.,2018-08-11,2018-08-11
30,ERNESTO ,GONZALEZ,JARAMILLO,6311404685,.,.,.,.,2018-08-11,2018-08-11
31,ERNESTO ,RUBIO,CASTRO,6311934045,.,.,.,.,2018-08-11,2018-08-11
32,EULALIO ,ROSALDO,FONSECA,6311826279,.,.,.,.,2018-08-11,2018-08-11
33,FCA DEL SOCORRO,SOCORRO,GONZALEZ,6319449535,.,.,.,.,2018-08-11,2018-08-11
34,FCO JAVIER,MORALES,VERGARA,6311321840,.,.,.,.,2018-08-11,2018-08-11
35,FCO JAVIER,PACHECO,ESPINOZA,6313574405,.,.,.,.,2018-08-11,2018-08-11
36,FELIPE DE JESUS,JESUS,ORTEGA,6313183201,.,.,.,.,2018-08-11,2018-08-11
37,FERNANDO ,LEYVAS,ZAVALA,15209801426,.,.,.,.,2018-08-11,2018-08-11
38,GABRIELA ALICIA,RAMOS,ARELANES,6624255847,.,.,.,.,2018-08-11,2018-08-11
39,GERARDO ,LOZANO,ARANDA,6311414368,.,.,.,.,2018-08-11,2018-08-11
40,GONZALO,RENTERIA,.,6311483830,.,.,.,.,2018-08-11,2018-08-11
41,GUADALUPE ARACELY,ARACELY,GUTIERREZ,63111161429,.,.,.,.,2018-08-11,2018-08-11
42,HECTOR MANUEL,HERRERA,DUARTE,6311101915,.,.,.,.,2018-08-11,2018-08-11
43,HECTOR RAUL,BORQUEZ,ESQUER,6024732294,.,.,.,.,2018-08-11,2018-08-11
44,HUGO GERARDO,DIAZ,RUIZ,15208696887,.,.,.,.,2018-08-11,2018-08-11
45,ILEANA DIAZ,LOPEZ,PORTILLO,6311792119,.,.,.,.,2018-08-11,2018-08-11
46,IVAN CORNELIO,OSUNA,LEDEZMA,6313025128,.,.,.,.,2018-08-11,2018-08-11
47,JAVIER DAVID,HERRERA,DUARTE,6311164052,.,.,.,.,2018-08-11,2018-08-11
48,JAVIER ZAITH,ZAITH,ALVAREZ,6311499138,.,.,.,.,2018-08-11,2018-08-11
49,JESUS DAVID,DAVID,BALDERRAMA,6311304953,.,.,.,.,2018-08-11,2018-08-11
50,JESUS ,FERNANDEZ,MINGURA,6311003564,.,.,.,.,2018-08-11,2018-08-11
51,JESUS JAVIER,MORENO,MORENO,6311578053,.,.,.,.,2018-08-11,2018-08-11
52,JONAS MIGUEL,VELAZQUEZ,VALDEZ,6319448738,.,.,.,.,2018-08-11,2018-08-11
53,JORGE ALBERTO,SANCHEZ,FIGUEROA,6319449190,.,.,.,.,2018-08-11,2018-08-11
54,JORGE DIEGO,CUEN,CORRALES,6313024245,.,.,.,.,2018-08-11,2018-08-11
55,JOSE GERARDO,ESPINOZA,SALOMON,6311090648,.,.,.,.,2018-08-11,2018-08-11
56,JOSE LUIS,GARCIA,MOLINA,6311262873,.,.,.,.,2018-08-11,2018-08-11
57,JOSE LUIS,VITELA,SANCHEZ,6311574055,.,.,.,.,2018-08-11,2018-08-11
58,JOSE MARIO,IÑIGUEZ,VILLAREAL,6311403873,.,.,.,.,2018-08-11,2018-08-11
59,JOSE MARTIN,SOTO,CONTRERAS,6312994633,.,.,.,.,2018-08-11,2018-08-11
60,JOSE MIGUEL,ESTRELLA,FARIAS,6313167542,.,.,.,.,2018-08-11,2018-08-11
61,JOSE RAMON,DURAN,ESCOBOZA,6313027167,.,.,.,.,2018-08-11,2018-08-11
62,JOSE RAUL,SANTA,MARIA,6311238472,.,.,.,.,2018-08-11,2018-08-11
63,JOSE SALVADOR,MENDEZ,VALENCIA,6311342730,.,.,.,.,2018-08-11,2018-08-11
64,JUAN ALBERTO,DE,LEON,16023778033,.,.,.,.,2018-08-11,2018-08-11
65,JUAN ALVARO,RIVERA,FIGUEROA,6312994112,.,.,.,.,2018-08-11,2018-08-11
66,JUAN CARLOS,COVARRUBIAS,LOPEZ,6311342625,.,.,.,.,2018-08-11,2018-08-11
67,JUAN JOSE,RUIZ,ALOR,6311008760,.,.,.,.,2018-08-11,2018-08-11
68,JUAN MERLO,MERLO,VALENZUELA,6311255777,.,.,.,.,2018-08-11,2018-08-11
69,KARINA AZUCENA,AZUCENA,ARREOLA,NO TIENE ,.,.,.,.,2018-08-11,2018-08-11
70,KARINA ,MEDRANO,ALCARAZ,6311080883,.,.,.,.,2018-08-11,2018-08-11
71,LORENZO ANTONIO,ANTONIO,MACIAS,6311136614,.,.,.,.,2018-08-11,2018-08-11
72,LOURDES LETICA,LOPEZ,VILLEGAS,6313186622,.,.,.,.,2018-08-11,2018-08-11
73,LUIS ALONSO,MENDEZ,PARRA,6311392256,.,.,.,.,2018-08-11,2018-08-11
74,LUIS CARLOS,CARLOS,URBALEJO,6311245957,.,.,.,.,2018-08-11,2018-08-11
75,LUIS HUMBERTO,HUMBERTO,BERRIOZABAL,6311138944,.,.,.,.,2018-08-11,2018-08-11
76,LUIS MARCELO,MARCELO,RIVAS,6614669843,.,.,.,.,2018-08-11,2018-08-11
77,MARIA CONCEPCION,VILLA,ZAYAS,6313145174,.,.,.,.,2018-08-11,2018-08-11
78,MARIA DEL ROSARIO,ROSARIO,RUIZ,6312995842,.,.,.,.,2018-08-11,2018-08-11
79,MARIA ELENA,OCHOA,GAMEZ,6319447580,.,.,.,.,2018-08-11,2018-08-11
80,MARIA FERNANDA,TINAJERO,OSUNA,6311563135,.,.,.,.,2018-08-11,2018-08-11
81,MARIA LUISA,PEÑA,AREDONDO,6311584114,.,.,.,.,2018-08-11,2018-08-11
82,MARIA SOLEDAD,GONZALEZ,TORRES,6311137806,.,.,.,.,2018-08-11,2018-08-11
83,MARIBEL HERRERA,HERRERA,VELARDE,6311080759,.,.,.,.,2018-08-11,2018-08-11
84,MARINA GUTIERREZ,GUTIERREZ,IRIQUI,6311343440,.,.,.,.,2018-08-11,2018-08-11
85,MARISOL ,MEDRANO,ALCARAZ,6311735081,.,.,.,.,2018-08-11,2018-08-11
86,MEYLIN PAOLA,PAOLA,GONZALEZ,6311684442,.,.,.,.,2018-08-11,2018-08-11
87,MIGUEL ANGEL,MARTINEZ,FIGUEROA,6311651551,.,.,.,.,2018-08-11,2018-08-11
88,MIGUEL ANTONIO,RAMIREZ,RAMOS,6311112033,.,.,.,.,2018-08-11,2018-08-11
89,NATIVIDAD DE JESUS,JESUS,LOPEZ,6311355462,.,.,.,.,2018-08-11,2018-08-11
90,NATIVIDAD ,LOPEZ,MADRID,6311011323,.,.,.,.,2018-08-11,2018-08-11
91,NESTOR EFREN,TAPIA,CHAIRES,6311688105,.,.,.,.,2018-08-11,2018-08-11
92,NORMA ALICIA,ESCOBOZA,MONTOYA,6312984936,.,.,.,.,2018-08-11,2018-08-11
93,OLIVIA ,HERRERA,VELARDE,15209882577,.,.,.,.,2018-08-11,2018-08-11
94,OLIVIA SUSANA,ENRIQUEZ,GIL,6311085922,.,.,.,.,2018-08-11,2018-08-11
95,OMAR ALBERTO,ALBERTO,LOPEZ,15208084559,.,.,.,.,2018-08-11,2018-08-11
96,OMAR JOEL,ALTAMIRANO,GUZMAN,6311717045,.,.,.,.,2018-08-11,2018-08-11
97,OSCAR,RUIZ,GONZALEZ,6311138944,.,.,.,.,2018-08-11,2018-08-11
98,RAFAEL ,BUSTAMANTE,MORALES,6311085922,.,.,.,.,2018-08-11,2018-08-11
99,RAMIRO ,CRUZ,OCHOA,NO TIENE ,.,.,.,.,2018-08-11,2018-08-11
100,RAMON GILBERTO,RODRIGUEZ,GONZALEZ,6311326030,.,.,.,.,2018-08-11,2018-08-11
101,RAUL ROBERTO,PALMA,LUQUE,6311090919,.,.,.,.,2018-08-11,2018-08-11
102,RICARDO ,TORRES,GONZALEZ,6311973747,.,.,.,.,2018-08-11,2018-08-11
103,ROMEO ALFREDO,BARRAZA,VAZQUEZ,6311106817,.,.,.,.,2018-08-11,2018-08-11
104,ROSARIO ,MADRID,GALVEZ,6311355462,.,.,.,.,2018-08-11,2018-08-11
105,RUBEN OMAR,ARIAS,BELTRAN,6311054757,.,.,.,.,2018-08-11,2018-08-11
106,SALVADOR ,LEDEZMZA,VERGARA,6311577017,.,.,.,.,2018-08-11,2018-08-11
107,SANDRA ,PLACENCIA,DADO,6312994004,.,.,.,.,2018-08-11,2018-08-11
108,SAUL ,PARRA,BOCARDO,6311341574,.,.,.,.,2018-08-11,2018-08-11
109,VALERIA AIME,JUVERO,MERANZA,6311290616,.,.,.,.,2018-08-11,2018-08-11
110,VERONICA ,VIZCARRA,LOPEZ,6311099449,.,.,.,.,2018-08-11,2018-08-11
111,YUDITH YADIRA,YADIRA,FLORES,6311680739,.,.,.,.,2018-08-11,2018-08-11